{
  "results": [
    {
      "popularity": 269.095,
      "vote_count": 990,
      "video": false,
      "poster_path": "/aQvJ5WPzZgYVDrxLX4R6cLJCEaQ.jpg",
      "id": 454626,
      "adult": false,
      "backdrop_path": "/stmYfCUGd8Iy6kAMBr6AmWqx8Bq.jpg",
      "original_language": "en",
      "original_title": "Sonic the Hedgehog",
      "genre_ids": [
        28,
        35,
        878,
        10751
      ],
      "title": "Sonic the Hedgehog",
      "vote_average": 7.3,
      "overview": "Based on the global blockbuster videogame franchise from Sega, Sonic the Hedgehog tells the story of the world’s speediest hedgehog as he embraces his new home on Earth. In this live-action adventure comedy, Sonic and his new best friend team up to defend the planet from the evil genius Dr. Robotnik and his plans for world domination.",
      "release_date": "2020-02-12"
    },
    {
      "popularity": 253.76,
      "vote_count": 3235,
      "video": false,
      "poster_path": "/iZf0KyrE25z1sage4SYFLCCrMi9.jpg",
      "id": 530915,
      "adult": false,
      "backdrop_path": "/cqa3sa4c4jevgnEJwq3CMF8UfTG.jpg",
      "original_language": "en",
      "original_title": "1917",
      "genre_ids": [
        28,
        18,
        10752
      ],
      "title": "1917",
      "vote_average": 8,
      "overview": "At the height of the First World War, two young British soldiers must cross enemy territory and deliver a message that will stop a deadly attack on hundreds of soldiers.",
      "release_date": "2019-12-25"
    },
    {
      "popularity": 177.152,
      "vote_count": 1325,
      "video": false,
      "poster_path": "/h4VB6m0RwcicVEZvzftYZyKXs6K.jpg",
      "id": 495764,
      "adult": false,
      "backdrop_path": "/2s1ofreBI8EFzIyL3SQrLRqO5Zx.jpg",
      "original_language": "en",
      "original_title": "Birds of Prey (and the Fantabulous Emancipation of One Harley Quinn)",
      "genre_ids": [
        28,
        35,
        80
      ],
      "title": "Birds of Prey (and the Fantabulous Emancipation of One Harley Quinn)",
      "vote_average": 6.8,
      "overview": "After her breakup with the Joker, Harley Quinn joins forces with singer Black Canary, assassin Huntress, and police detective Renee Montoya to help a young girl named Cassandra, who had a hit placed on her after she stole a rare diamond from crime lord Roman Sionis.",
      "release_date": "2020-02-05"
    },
    {
      "popularity": 189.617,
      "vote_count": 108,
      "video": false,
      "poster_path": "/8WUVHemHFH2ZIP6NWkwlHWsyrEL.jpg",
      "id": 338762,
      "adult": false,
      "backdrop_path": "/ocUrMYbdjknu2TwzMHKT9PBBQRw.jpg",
      "original_language": "en",
      "original_title": "Bloodshot",
      "genre_ids": [
        28,
        18,
        14,
        878
      ],
      "title": "Bloodshot",
      "vote_average": 6,
      "overview": "After he and his wife are murdered, marine Ray Garrison is resurrected by a team of scientists. Enhanced with nanotechnology, he becomes a superhuman, biotech killing machine - Bloodshot. As Ray first trains with fellow super-soldiers, he cannot recall anything from his former life. But when his memories flood back and he remembers the man that killed both him and his wife, he breaks out of the facility to get revenge, only to discover that there's more to the conspiracy than he thought.",
      "release_date": "2020-02-20"
    },
    {
      "popularity": 116.876,
      "vote_count": 5166,
      "video": false,
      "poster_path": "/7IiTTgloJzvGI1TAYymCfbfl3vT.jpg",
      "id": 496243,
      "adult": false,
      "backdrop_path": "/TU9NIjwzjoKPwQHoHshkFcQUCG.jpg",
      "original_language": "ko",
      "original_title": "기생충",
      "genre_ids": [
        35,
        18,
        53
      ],
      "title": "Parasite",
      "vote_average": 8.6,
      "overview": "All unemployed, Ki-taek's family takes peculiar interest in the wealthy and glamorous Parks for their livelihood until they get entangled in an unexpected incident.",
      "release_date": "2019-05-30"
    },
    {
      "popularity": 136.903,
      "vote_count": 9843,
      "video": false,
      "poster_path": "/udDclJoHjfjb8Ekgsd4FDteOkCU.jpg",
      "id": 475557,
      "adult": false,
      "backdrop_path": "/n6bUvigpRFqSwmPp1m2YADdbRBc.jpg",
      "original_language": "en",
      "original_title": "Joker",
      "genre_ids": [
        80,
        18,
        53
      ],
      "title": "Joker",
      "vote_average": 8.2,
      "overview": "During the 1980s, a failed stand-up comedian is driven insane and turns to a life of crime and chaos in Gotham City while becoming an infamous psychopathic crime figure.",
      "release_date": "2019-10-02"
    },
    {
      "popularity": 103.212,
      "vote_count": 400,
      "video": false,
      "poster_path": "/4U7hpTK0XTQBKT5X60bKmJd05ha.jpg",
      "id": 570670,
      "adult": false,
      "backdrop_path": "/uZMZyvarQuXLRqf3xdpdMqzdtjb.jpg",
      "original_language": "en",
      "original_title": "The Invisible Man",
      "genre_ids": [
        27,
        878,
        53
      ],
      "title": "The Invisible Man",
      "vote_average": 7.2,
      "overview": "When Cecilia's abusive ex takes his own life and leaves her his fortune, she suspects his death was a hoax. As a series of coincidences turn lethal, Cecilia works to prove that she is being hunted by someone nobody can see.",
      "release_date": "2020-02-26"
    },
    {
      "popularity": 81.477,
      "vote_count": 179,
      "video": false,
      "poster_path": "/vN7JHlHOT9rHNDU27tfYqhABBj5.jpg",
      "id": 465086,
      "adult": false,
      "backdrop_path": "/h4x5aN52nq78PM8zXD77THhZTB.jpg",
      "original_language": "en",
      "original_title": "The Grudge",
      "genre_ids": [
        27,
        9648
      ],
      "title": "The Grudge",
      "vote_average": 5.2,
      "overview": "After a young mother murders her family in her own house, a detective attempts to investigate the mysterious case, only to discover that the house is cursed by a vengeful ghost. Now targeted by the demonic spirits, the detective must do anything to protect herself and her family from harm.",
      "release_date": "2020-01-02"
    },
    {
      "popularity": 104.33,
      "vote_count": 346,
      "video": false,
      "poster_path": "/30YacPAcxpNemhhwX0PVUl9pVA3.jpg",
      "id": 431693,
      "adult": false,
      "backdrop_path": "/qlYxtqVfu2LOdvYMMDPCSGX0Oz0.jpg",
      "original_language": "en",
      "original_title": "Spies in Disguise",
      "genre_ids": [
        28,
        12,
        16,
        35
      ],
      "title": "Spies in Disguise",
      "vote_average": 7.3,
      "overview": "Super spy Lance Sterling and scientist Walter Beckett are almost exact opposites. Lance is smooth, suave and debonair. Walter is… not. But what Walter lacks in social skills he makes up for in smarts and invention, creating the awesome gadgets Lance uses on his epic missions. But when events take an unexpected turn, Walter and Lance suddenly have to rely on each other in a whole new way.",
      "release_date": "2019-12-24"
    },
    {
      "popularity": 78.82,
      "vote_count": 413,
      "video": false,
      "poster_path": "/qCDPKUMX5xrxxQY8XhGVCKO3fks.jpg",
      "id": 599975,
      "adult": false,
      "backdrop_path": "/zETkzgle7c6wAeW11snnVUBp67S.jpg",
      "original_language": "en",
      "original_title": "Countdown",
      "genre_ids": [
        27,
        53
      ],
      "title": "Countdown",
      "vote_average": 6.3,
      "overview": "A young nurse downloads an app that tells her she only has three days to live. With time ticking away and a mysterious figure haunting her, she must find a way to save her life before time runs out.",
      "release_date": "2019-10-24"
    },
    {
      "popularity": 82.703,
      "vote_count": 9,
      "video": false,
      "poster_path": "/o1D5kEPPOGReel6CipiKOY5tPJt.jpg",
      "id": 642657,
      "adult": false,
      "backdrop_path": "/eUFN7zot3iRSm19xKxxnm6Vxeot.jpg",
      "original_language": "id",
      "original_title": "Milea: Suara dari Dilan",
      "genre_ids": [
        18,
        10749
      ],
      "title": "Milea: Suara dari Dilan",
      "vote_average": 5.8,
      "overview": "Before the grand reunion, Dilan decided to write and retell his love story with Milea. This is Dilan's way of remembering Milea.",
      "release_date": "2020-02-13"
    },
    {
      "popularity": 106.663,
      "vote_count": 8,
      "video": false,
      "poster_path": "/iaTW57RK87v7ZrGkLKVofNH9YOr.jpg",
      "id": 505951,
      "adult": false,
      "backdrop_path": "/cIXnYsJF0pxuRJabHpTTl1jckcw.jpg",
      "original_language": "ta",
      "original_title": "கண்ணும் கண்ணும் கொள்ளையடித்தால்",
      "genre_ids": [
        35,
        18,
        10749
      ],
      "title": "Kannum Kannum Kollaiyadithaal",
      "vote_average": 4.8,
      "overview": "Siddarth falls head-over-heels in love with Meera but things take a risky turn when they get into a messy situation with a dangerous man.",
      "release_date": "2020-02-28"
    },
    {
      "popularity": 72.295,
      "vote_count": 669,
      "video": false,
      "poster_path": "/1DPUFG6QnGqzpvEaDEv7TaepycM.jpg",
      "id": 458897,
      "adult": false,
      "backdrop_path": "/a0xTB1vBxMGt6LGG4N7k1wO9lfL.jpg",
      "original_language": "en",
      "original_title": "Charlie's Angels",
      "genre_ids": [
        28,
        12,
        35
      ],
      "title": "Charlie's Angels",
      "vote_average": 6.4,
      "overview": "When a systems engineer blows the whistle on a dangerous technology, Charlie's Angels from across the globe are called into action, putting their lives on the line to protect society.",
      "release_date": "2019-11-14"
    },
    {
      "popularity": 71.788,
      "vote_count": 194,
      "video": false,
      "poster_path": "/f4aul3FyD3jv3v4bul1IrkWZvzq.jpg",
      "id": 508439,
      "adult": false,
      "backdrop_path": "/xFxk4vnirOtUxpOEWgA1MCRfy6J.jpg",
      "original_language": "en",
      "original_title": "Onward",
      "genre_ids": [
        12,
        16,
        35,
        14,
        10751
      ],
      "title": "Onward",
      "vote_average": 8.1,
      "overview": "In a suburban fantasy world, two teenage elf brothers embark on an extraordinary quest to discover if there is still a little magic left out there.",
      "release_date": "2020-02-29"
    },
    {
      "popularity": 94.66,
      "vote_count": 1,
      "video": false,
      "poster_path": "/7bjTzPQUV2KVI0HdUjf1l8lUoLF.jpg",
      "id": 571265,
      "adult": false,
      "backdrop_path": "/ApywEWLRVaHUY5QX5tUhErBD5m3.jpg",
      "original_language": "ja",
      "original_title": "デジモンアドベンチャー LAST EVOLUTION 絆",
      "genre_ids": [
        28,
        12,
        16,
        53
      ],
      "title": "Digimon Adventure: Last Evolution Kizuna",
      "vote_average": 10,
      "overview": "Tai is now a university student, living alone, working hard at school, and working every day, but with his future still undecided. Meanwhile, Matt and others continue to work on Digimon incidents and activities that help people with their partner Digimon. When an unprecedented phenomenon occurs, the DigiDestined discover that when they grow up, their relationship with their partner Digimon will come closer to an end.  As a countdown timer activates on the Digivice, they realize that the more they fight with their partner Digimon, the faster their bond breaks. Will they fight for others and lose their partner? The time to choose and decide is approaching fast. There is a short time before “chosen children” will become adults. This is the last adventure of Tai and Agumon.",
      "release_date": "2020-02-21"
    },
    {
      "popularity": 74.411,
      "vote_count": 10,
      "video": false,
      "poster_path": "/h7pG5vA2MKBGNV7x6NiCnoLkmh.jpg",
      "id": 514847,
      "adult": false,
      "backdrop_path": "/wsO2HioIVWb5Qfa55WmzuXstXYj.jpg",
      "original_language": "en",
      "original_title": "The Hunt",
      "genre_ids": [
        28,
        27,
        53
      ],
      "title": "The Hunt",
      "vote_average": 7.3,
      "overview": "Twelve strangers wake up in a clearing. They don't know where they are, or how they got there. They don't know they've been chosen - for a very specific purpose - The Hunt.",
      "release_date": "2020-03-13"
    },
    {
      "popularity": 62.502,
      "vote_count": 1357,
      "video": false,
      "poster_path": "/mSmiB8XjUnR1GSIljuCPGsk0cwX.jpg",
      "id": 331482,
      "adult": false,
      "backdrop_path": "/3uTxPIdVEXxHpsHOHdJC24QebBV.jpg",
      "original_language": "en",
      "original_title": "Little Women",
      "genre_ids": [
        18,
        10749
      ],
      "title": "Little Women",
      "vote_average": 8,
      "overview": "Four sisters come of age in America in the aftermath of the Civil War.",
      "release_date": "2019-12-25"
    },
    {
      "popularity": 59.176,
      "vote_count": 1650,
      "video": false,
      "poster_path": "/pIcV8XXIIvJCbtPoxF9qHMKdRr2.jpg",
      "id": 338967,
      "adult": false,
      "backdrop_path": "/3ghImmHdp4RnC3UkL6hpLayclnb.jpg",
      "original_language": "en",
      "original_title": "Zombieland: Double Tap",
      "genre_ids": [
        28,
        35,
        27
      ],
      "title": "Zombieland: Double Tap",
      "vote_average": 6.9,
      "overview": "Columbus, Tallahassee, Wichita, and Little Rock move to the American heartland as they face off against evolved zombies, fellow survivors, and the growing pains of the snarky makeshift family.",
      "release_date": "2019-10-09"
    },
    {
      "popularity": 69.299,
      "vote_count": 1,
      "video": false,
      "poster_path": "/pdj1EK3ZTTroWOcH1BTE7fZwm1c.jpg",
      "id": 449756,
      "adult": false,
      "backdrop_path": "/K4X3g11ilQvz4XONkbmIreIgwh.jpg",
      "original_language": "en",
      "original_title": "The Postcard Killings",
      "genre_ids": [
        18,
        9648
      ],
      "title": "The Postcard Killings",
      "vote_average": 5,
      "overview": "A New York detective teams investigates the death of his daughter who was murdered while on her honeymoon in London, and recruits the help of Scandinavian journalist when other couples throughout Europe suffer a similar fate.",
      "release_date": "2020-03-13"
    },
    {
      "popularity": 55.196,
      "vote_count": 17,
      "video": false,
      "poster_path": "/sI4StUppzQHzSU9QPiRUxOvQRvp.jpg",
      "id": 502425,
      "adult": false,
      "backdrop_path": "/kolkVKNZSjhZGHwcrFU36Watpke.jpg",
      "original_language": "en",
      "original_title": "Escape from Pretoria",
      "genre_ids": [
        53
      ],
      "title": "Escape from Pretoria",
      "vote_average": 7.3,
      "overview": "Two white South Africans, imprisoned for working on behalf of the ANC, are determined to escape from Pretoria's notorious white man's 'Robben Island' Prison.",
      "release_date": "2020-03-06"
    }
  ],
  "page": 1,
  "total_results": 1123,
  "dates": {
    "maximum": "2020-03-20",
    "minimum": "2020-02-01"
  },
  "total_pages": 57
}