{"results":[{"vote_count":2073,"id":354912,"video":false,"vote_average":7.7,"title":"Coco","popularity":258.57751,"poster_path":"\/eKi8dIrr8voobbaGzDpe8w0PVbC.jpg","original_language":"en","original_title":"Coco","genre_ids":[12,16,35,10751],"backdrop_path":"\/askg3SMvhqEl4OL52YuvdtY40Yb.jpg","adult":false,"overview":"Despite his family’s baffling generations-old ban on music, Miguel dreams of becoming an accomplished musician like his idol, Ernesto de la Cruz. Desperate to prove his talent, Miguel finds himself in the stunning and colorful Land of the Dead following a mysterious chain of events. Along the way, he meets charming trickster Hector, and together, they set off on an extraordinary journey to unlock the real story behind Miguel's family history.","release_date":"2017-10-27"},{"vote_count":3845,"id":284053,"video":false,"vote_average":7.4,"title":"Thor: Ragnarok","popularity":156.715081,"poster_path":"\/oSLd5GYGsiGgzDPKTwQh7wamO8t.jpg","original_language":"en","original_title":"Thor: Ragnarok","genre_ids":[878,28,12,35],"backdrop_path":"\/kaIfm5ryEOwYg8mLbq8HkPuM1Fo.jpg","adult":false,"overview":"Thor is imprisoned on the other side of the universe and finds himself in a race against time to get back to Asgard to stop Ragnarok, the prophecy of destruction to his homeworld and the end of Asgardian civilization, at the hands of an all-powerful new threat, the ruthless Hela.","release_date":"2017-10-25"},{"vote_count":109,"id":335777,"video":false,"vote_average":5.9,"title":"The Nut Job 2: Nutty by Nature","popularity":124.449052,"poster_path":"\/xOfdQHNF9TlrdujyAjiKfUhxSXy.jpg","original_language":"en","original_title":"The Nut Job 2: Nutty by Nature","genre_ids":[10751,16,12,35],"backdrop_path":"\/bd1X5nNrrAHVGG0MxsAeCOPPh1w.jpg","adult":false,"overview":"When the evil mayor of Oakton decides to bulldoze Liberty Park and build a dangerous amusement park in its place, Surly Squirrel and his ragtag group of animal friends need to band together to save their home, defeat the mayor, and take back the park.","release_date":"2017-08-11"},{"vote_count":827,"id":395834,"video":false,"vote_average":7.5,"title":"Wind River","popularity":114.252556,"poster_path":"\/pySivdR845Hom4u4T2WNkJxe6Ad.jpg","original_language":"en","original_title":"Wind River","genre_ids":[80,18,9648,53],"backdrop_path":"\/iF9d73lbtDYeCsPhQmjtkEmlrYG.jpg","adult":false,"overview":"An FBI agent teams with the town's veteran game tracker to investigate a murder that occurred on a Native American reservation.","release_date":"2017-08-03"},{"vote_count":359,"id":336843,"video":false,"vote_average":7.3,"title":"Maze Runner: The Death Cure","popularity":112.850127,"poster_path":"\/7GgZ6DGezkh3szFdvskH5XD4V0t.jpg","original_language":"en","original_title":"Maze Runner: The Death Cure","genre_ids":[28,9648,878,53],"backdrop_path":"\/bvbyidkMaBls1LTaIWYY6UmYTaL.jpg","adult":false,"overview":"Thomas leads his group of escaped Gladers on their final and most dangerous mission yet. To save their friends, they must break into the legendary Last City, a WCKD-controlled labyrinth that may turn out to be the deadliest maze of all. Anyone who makes it out alive will get answers to the questions the Gladers have been asking since they first arrived in the maze.","release_date":"2018-01-17"},{"vote_count":139,"id":337167,"video":false,"vote_average":6.9,"title":"Fifty Shades Freed","popularity":106.358145,"poster_path":"\/jjPJ4s3DWZZvI4vw8Xfi4Vqa1Q8.jpg","original_language":"en","original_title":"Fifty Shades Freed","genre_ids":[18,10749],"backdrop_path":"\/9ywA15OAiwjSTvg3cBs9B7kOCBF.jpg","adult":false,"overview":"Believing they have left behind shadowy figures from their past, newlyweds Christian and Ana fully embrace an inextricable connection and shared life of luxury. But just as she steps into her role as Mrs. Grey and he relaxes into an unfamiliar stability, new threats could jeopardize their happy ending before it even begins.","release_date":"2018-02-07"},{"vote_count":787,"id":399055,"video":false,"vote_average":7.4,"title":"The Shape of Water","popularity":102.925597,"poster_path":"\/iLYLADGA5oKGM92Ns1j9CDgk3iI.jpg","original_language":"en","original_title":"The Shape of Water","genre_ids":[18,14,10749],"backdrop_path":"\/bAISaVhsaoyyQMZ55cpTwCdzek4.jpg","adult":false,"overview":"An other-worldly story, set against the backdrop of Cold War era America circa 1962, where a mute janitor working at a lab falls in love with an amphibious man being held captive there and devises a plan to help him escape.","release_date":"2017-12-08"},{"vote_count":62,"id":425980,"video":false,"vote_average":6,"title":"Brad's Status","popularity":94.964459,"poster_path":"\/uXiNpvig7EMq18VyNBUTlWrmN0q.jpg","original_language":"en","original_title":"Brad's Status","genre_ids":[10402,35,18],"backdrop_path":"\/eRfANc4xSRNaR8E9fUI9hdLkCWB.jpg","adult":false,"overview":"Ben Stiller stars as Brad, whose satisfying career, sweet wife and comfortable life in suburban Sacramento aren't quite what he imagined during his college glory days. When he accompanies his musical prodigy son on a university tour, he can't help comparing his life with those of his four best college friends who seemingly have more wealthy and glamorous lives. But when circumstances force him to reconnect with his former friends, Brad begins to question whether he has really failed or if their lives are actually more flawed than they appear. Also stars Jenna Fischer (The Office), Luke Wilson (Old School) and Michael Sheen (Masters of Sex).","release_date":"2017-09-15"},{"vote_count":35,"id":455236,"video":false,"vote_average":4.5,"title":"Accident Man","popularity":86.216875,"poster_path":"\/bHFKej3Dbr8kGRSRHpkoFHq9TJQ.jpg","original_language":"en","original_title":"Accident Man","genre_ids":[28,80,53],"backdrop_path":"\/ikSJWKUZEgXYsB1UMAYlNxqzXwT.jpg","adult":false,"overview":"Mike Fallon, the Accident Man, is a stone cold killer.  When a loved one is murdered by his own crew, Fallon is forced to avenge the one person who actually meant something to him.","release_date":"2018-02-05"},{"vote_count":458,"id":290512,"video":false,"vote_average":6.6,"title":"The Mountain Between Us","popularity":84.786779,"poster_path":"\/3XNfYTW4XGscI81nXMSWGsQ8cpu.jpg","original_language":"en","original_title":"The Mountain Between Us","genre_ids":[10749,12,18],"backdrop_path":"\/pYU0fUk0G8cquQaQJQnKVz5mw95.jpg","adult":false,"overview":"Stranded after a tragic plane crash, two strangers must forge a connection to survive the extreme elements of a remote snow covered mountain. When they realize help is not coming, they embark on a perilous journey across the wilderness.","release_date":"2017-10-05"},{"vote_count":67,"id":284054,"video":false,"vote_average":5,"title":"Black Panther","popularity":84.751285,"poster_path":"\/bLBUCtMQGJclH36clliPLmljMys.jpg","original_language":"en","original_title":"Black Panther","genre_ids":[28,12,18,878,53],"backdrop_path":"\/6ELJEzQJ3Y45HczvreC3dg0GV5R.jpg","adult":false,"overview":"T'Challa, the new ruler of the advanced kingdom of Wakanda, must defend his land from being torn apart by enemies from outside and inside the country.","release_date":"2018-02-13"},{"vote_count":73,"id":418680,"video":false,"vote_average":7.2,"title":"Goodbye Christopher Robin","popularity":80.820722,"poster_path":"\/AsUMHAeyi339ac0qyiBaMN1TkS5.jpg","original_language":"en","original_title":"Goodbye Christopher Robin","genre_ids":[10751,36],"backdrop_path":"\/tUVVEGe16K5hfN7jH5MhJYjbCt2.jpg","adult":false,"overview":"The behind the scenes story of the life of A.A. Milne and the creation of the Winnie the Pooh stories inspired by his son Christopher Robin.","release_date":"2017-09-29"},{"vote_count":931,"id":406997,"video":false,"vote_average":8.2,"title":"Wonder","popularity":79.591966,"poster_path":"\/iWjUKwPJ91nFoltlZzr8s4Ij5da.jpg","original_language":"en","original_title":"Wonder","genre_ids":[18],"backdrop_path":"\/4rsrxYDfIzvtAsIE9wevxPRXAk4.jpg","adult":false,"overview":"The story of August Pullman – a boy with facial differences – who enters fifth grade, attending a mainstream elementary school for the first time.","release_date":"2017-11-13"},{"vote_count":404,"id":379149,"video":false,"vote_average":6.9,"title":"The Foreigner","popularity":77.754168,"poster_path":"\/rwM4hzrmc5HiWfQD9ls9DL4QgGl.jpg","original_language":"en","original_title":"The Foreigner","genre_ids":[28,53],"backdrop_path":"\/sDiGcjWhSu42dCw0jQmBInAkDZ9.jpg","adult":false,"overview":"Quan is a humble London businessman whose long-buried past erupts in a revenge-fueled vendetta when the only person left for him to love – his teenage daughter – dies in a senseless act of politically-motivated terrorism. His relentless search to find the terrorists leads to a cat-and-mouse conflict with a British government official whose own past may hold the clues to the identities of the elusive killers.","release_date":"2017-09-24"},{"vote_count":627,"id":399404,"video":false,"vote_average":7.1,"title":"Darkest Hour","popularity":66.867955,"poster_path":"\/xa6G3aKlysQeVg9wOb0dRcIGlWu.jpg","original_language":"en","original_title":"Darkest Hour","genre_ids":[18,36],"backdrop_path":"\/zXwFJMwvQcJFitP9GcHZvHAHGe8.jpg","adult":false,"overview":"A thrilling and inspiring true story begins on the eve of World War II as, within days of becoming Prime Minister of Great Britain, Winston Churchill must face one of his most turbulent and defining trials: exploring a negotiated peace treaty with Nazi Germany, or standing firm to fight for the ideals, liberty and freedom of a nation. As the unstoppable Nazi forces roll across Western Europe and the threat of invasion is imminent, and with an unprepared public, a skeptical King, and his own party plotting against him, Churchill must withstand his darkest hour, rally a nation, and attempt to change the course of world history.","release_date":"2017-11-22"},{"vote_count":17,"id":378111,"video":false,"vote_average":4.8,"title":"A Stork's Journey","popularity":62.017359,"poster_path":"\/aKwgGlhdhdbx0duJhCRojkEZXgU.jpg","original_language":"de","original_title":"A Stork's Journey","genre_ids":[10751,14,12,16,35],"backdrop_path":"\/aWQztPZVaakYEGLvZVTf4eaB0q7.jpg","adult":false,"overview":"Orphaned at birth and raised by storks, the teenage sparrow Richard believes he is one of them. But when the time comes to migrate to Africa, his stork family is forced to reveal his true identity and leave him behind in the forest, since he is not a migratory bird and would not survive the journey. Determined to prove he is a stork after all, Richard ventures south on his own. But only with the help of Olga, an eccentric owl with an imaginary friend and Kiki, a narcissistic, disco-singing parakeet, does he stand a chance to reach his goal and learn to accept who he really is.","release_date":"2017-05-05"},{"vote_count":44,"id":390061,"video":false,"vote_average":5.7,"title":"Mark Felt: The Man Who Brought Down the White House","popularity":59.991895,"poster_path":"\/6Oq2lQaePXJJwcguc8aqB7EpduZ.jpg","original_language":"en","original_title":"Mark Felt: The Man Who Brought Down the White House","genre_ids":[18,36,53],"backdrop_path":"\/lsDqGTexYBYvZ2eeagh0ORo0k1b.jpg","adult":false,"overview":"The story of Mark Felt, who under the name \"Deep Throat\" helped journalists Bob Woodward and Carl Bernstein uncover the Watergate scandal in 1974.","release_date":"2017-09-29"},{"vote_count":612,"id":416477,"video":false,"vote_average":7.6,"title":"The Big Sick","popularity":56.812235,"poster_path":"\/qquEFkFbQX1i8Bal260EgGCnZ0f.jpg","original_language":"en","original_title":"The Big Sick","genre_ids":[35,18,10749],"backdrop_path":"\/fYI8WX2DquAHMqwh5mOMxc6RU5j.jpg","adult":false,"overview":"Pakistan-born comedian Kumail Nanjiani and grad student Emily Gardner fall in love but struggle as their cultures clash. When Emily contracts a mysterious illness, Kumail finds himself forced to face her feisty parents, his family's expectations, and his true feelings.","release_date":"2017-06-23"},{"vote_count":16,"id":440374,"video":false,"vote_average":6.3,"title":"The Summit","popularity":44.551522,"poster_path":"\/ktuehHIyjd2Njs9x0Nab232EGWF.jpg","original_language":"es","original_title":"La Cordillera","genre_ids":[18],"backdrop_path":"\/lqdbi8bmZkEzGi7ooHQ7U2TyBCY.jpg","adult":false,"overview":"At a Latin American Presidents’ Summit in Chile where the region’s alliances and geopolitical strategies are shaped, Hernán Blanco, the president of Argentina, lives a political and family drama. Through his son in law, he’s implicated in a corruption case. On her father’s call, Marina Blanco, attends the Summit to find protection, to earn time and to negotiate a way out. Once the thriller starts to build up, the film drifts towards a different direction: a search in their mutual past, as if in the past, a key to understand the significance of the exercise of power could be found. The history of a father versus that of his daughter. That past once calm and domestic, becomes a menacing element, almost fantastic, seen from the top of public life, seen from the Summit.","release_date":"2017-08-17"},{"vote_count":429,"id":399035,"video":false,"vote_average":5.6,"title":"The Commuter","popularity":44.326558,"poster_path":"\/rDeGK6FIUfVcXmuBdEORPAGPMNg.jpg","original_language":"en","original_title":"The Commuter","genre_ids":[28,80,18,9648,53],"backdrop_path":"\/nlsNr1BEmRgRYYOO24NSHm6BXYb.jpg","adult":false,"overview":"A businessman on his daily commute home gets unwittingly caught up in a criminal conspiracy that threatens not only his life but the lives of those around him.","release_date":"2018-01-11"}],"page":1,"total_results":753,"dates":{"maximum":"2018-02-16","minimum":"2017-12-29"},"total_pages":38}